results/sim_W64.log
Running 32-bit adder tests...
VCD info: dumpfile results/waves_W32.vcd opened for output.
T=10000 ns | A=00000000 B=00000000 Cin=0 => RCA=000000000 CLA=000000000 PRE=000000000 | Exp=000000000
T=20000 ns | A=ffffffff B=ffffffff Cin=0 => RCA=1fffffffe CLA=1fffffffe PRE=1fffffffe | Exp=1fffffffe
T=30000 ns | A=ffffffff B=00000000 Cin=1 => RCA=100000000 CLA=100000000 PRE=100000000 | Exp=100000000
T=40000 ns | A=00000000 B=ffffffff Cin=1 => RCA=100000000 CLA=100000000 PRE=100000000 | Exp=100000000
T=50000 ns | A=92153524 B=40895e81 Cin=0 => RCA=0d29e93a5 CLA=0d29e93a5 PRE=0d29e93a5 | Exp=0d29e93a5
T=60000 ns | A=0484d609 B=31f05663 Cin=1 => RCA=036752c6d CLA=036752c6d PRE=036752c6d | Exp=036752c6d
T=70000 ns | A=86b97b0d B=c6df998d Cin=1 => RCA=14d99149b CLA=14d99149b PRE=14d99149b | Exp=14d99149b
T=80000 ns | A=32c28465 B=09375212 Cin=1 => RCA=03bf9d678 CLA=03bf9d678 PRE=03bf9d678 | Exp=03bf9d678
T=90000 ns | A=80f3e301 B=86d7cd0d Cin=1 => RCA=107cbb00f CLA=107cbb00f PRE=107cbb00f | Exp=107cbb00f
T=100000 ns | A=bb23f176 B=9e8dcd3d Cin=1 => RCA=159b1beb4 CLA=159b1beb4 PRE=159b1beb4 | Exp=159b1beb4
T=110000 ns | A=f6d457ed B=c62df78c Cin=1 => RCA=1bd024f7a CLA=1bd024f7a PRE=1bd024f7a | Exp=1bd024f7a
T=120000 ns | A=fcfde9f9 B=633724c6 Cin=0 => RCA=160350ebf CLA=160350ebf PRE=160350ebf | Exp=160350ebf
T=130000 ns | A=62f784c5 B=5513d2aa Cin=1 => RCA=0b80b5770 CLA=0b80b5770 PRE=0b80b5770 | Exp=0b80b5770
T=140000 ns | A=f2aff7e5 B=3bd27277 Cin=1 => RCA=12e826a5d CLA=12e826a5d PRE=12e826a5d | Exp=12e826a5d
T=150000 ns | A=0932d612 B=c7ecdb8f Cin=0 => RCA=0d11fb1a1 CLA=0d11fb1a1 PRE=0d11fb1a1 | Exp=0d11fb1a1
T=160000 ns | A=f93069f2 B=677696ce Cin=1 => RCA=160a700c1 CLA=160a700c1 PRE=160a700c1 | Exp=160a700c1
T=170000 ns | A=74007ae8 B=62ca4ec5 Cin=1 => RCA=0d6cac9ae CLA=0d6cac9ae PRE=0d6cac9ae | Exp=0d6cac9ae
T=180000 ns | A=ae58495c B=5e8e28bd Cin=0 => RCA=10ce67219 CLA=10ce67219 PRE=10ce67219 | Exp=10ce67219
T=190000 ns | A=16ab582d B=32a72665 Cin=1 => RCA=049527e93 CLA=049527e93 PRE=049527e93 | Exp=049527e93
T=200000 ns | A=31ef6263 B=8573870a Cin=0 => RCA=0b762e96d CLA=0b762e96d PRE=0b762e96d | Exp=0b762e96d
All tests complete for WIDTH=32.
tb/tb_adders.sv:59: $finish called at 200000 (1ps)
